…
Exercise 1, step 1
========================================================


```r
df %>%
  group_by(Country_Name)
```

```
# A tibble: 236 x 37
# Groups:   Country_Name [4]
    year Country_Name Country_Code Adolescent_fert… Age_dependency_…
   <dbl> <chr>        <chr>                   <dbl>            <dbl>
 1  1960 Denmark      DNK                      44.2             55.8
 2  1961 Denmark      DNK                      45.0             55.6
 3  1962 Denmark      DNK                      45.9             55.2
 4  1963 Denmark      DNK                      45.5             54.8
 5  1964 Denmark      DNK                      45.1             54.5
 6  1965 Denmark      DNK                      44.7             54.3
 7  1966 Denmark      DNK                      44.4             54.4
 8  1967 Denmark      DNK                      44.0             54.6
 9  1968 Denmark      DNK                      40.7             54.8
10  1969 Denmark      DNK                      37.4             55.0
# … with 226 more rows, and 32 more variables:
#   Age_population_age_0_female_interpolated <dbl>,
#   Age_population_age_0_male_interpolated <dbl>,
#   Age_population_age_01_female_interpolated <dbl>,
#   Age_population_age_01_male_interpolated <dbl>,
#   Age_population_age_02_female_interpolated <dbl>,
#   Age_population_age_02_male_interpolated <dbl>,
#   Age_population_age_03_female_interpolated <dbl>,
#   Age_population_age_03_male_interpolated <dbl>,
…
Exercise 2, step 1
========================================================


```r
df %>%
  group_by(year)
```

```
# A tibble: 236 x 37
# Groups:   year [59]
    year Country_Name Country_Code Adolescent_fert… Age_dependency_…
   <dbl> <chr>        <chr>                   <dbl>            <dbl>
 1  1960 Denmark      DNK                      44.2             55.8
 2  1961 Denmark      DNK                      45.0             55.6
 3  1962 Denmark      DNK                      45.9             55.2
 4  1963 Denmark      DNK                      45.5             54.8
 5  1964 Denmark      DNK                      45.1             54.5
 6  1965 Denmark      DNK                      44.7             54.3
 7  1966 Denmark      DNK                      44.4             54.4
 8  1967 Denmark      DNK                      44.0             54.6
 9  1968 Denmark      DNK                      40.7             54.8
10  1969 Denmark      DNK                      37.4             55.0
# … with 226 more rows, and 32 more variables:
#   Age_population_age_0_female_interpolated <dbl>,
#   Age_population_age_0_male_interpolated <dbl>,
#   Age_population_age_01_female_interpolated <dbl>,
#   Age_population_age_01_male_interpolated <dbl>,
#   Age_population_age_02_female_interpolated <dbl>,
#   Age_population_age_02_male_interpolated <dbl>,
#   Age_population_age_03_female_interpolated <dbl>,
#   Age_population_age_03_male_interpolated <dbl>,
…
Exercise 2, step 2
========================================================


```r
df %>%
  group_by(year) %>%
  summarise(avg_population_female = mean(Population_female_of_total_))
```

```
# A tibble: 59 x 2
    year avg_population_female
   <dbl>                 <dbl>
 1  1960                  50.6
 2  1961                  50.6
 3  1962                  50.6
 4  1963                  50.6
 5  1964                  50.6
 6  1965                  50.6
 7  1966                  50.6
 8  1967                  50.6
 9  1968                  50.6
10  1969                  50.6
# … with 49 more rows
```
…
